{
  "images" : [
    {
      "filename" : "verve_payment_method_card_icon_142730 1.png",
      "idiom" : "universal",
      "scale" : "1x"
    },
    {
      "filename" : "verve_payment_method_card_icon_142730 1@2x.png",
      "idiom" : "universal",
      "scale" : "2x"
    },
    {
      "filename" : "verve_payment_method_card_icon_142730 1@3x.png",
      "idiom" : "universal",
      "scale" : "3x"
    }
  ],
  "info" : {
    "author" : "xcode",
    "version" : 1
  }
}
